{
	"id": "b15ae781-8257-4fea-910f-0acc2e24149b",
	"name": "eestecnet",
	"values": [
		{
			"key": "email",
			"value": "test@eestec.net",
			"enabled": true
		},
		{
			"key": "password",
			"value": "12345678",
			"enabled": true
		},
		{
			"key": "name",
			"value": "Test",
			"enabled": true
		},
		{
			"key": "full_name",
			"value": "Test User",
			"enabled": true
		},
		{
			"key": "date_of_birth",
			"value": "2020-01-01",
			"enabled": true
		},
		{
			"key": "password_confirmation",
			"value": "12345678",
			"enabled": true
		},
		{
			"key": "terms",
			"value": "true",
			"enabled": true
		},
		{
			"key": "access_token",
			"value": "",
			"enabled": true
		},
		{
			"key": "url",
			"value": "http://localhost:8080/api",
			"enabled": true
		},
		{
			"key": "user_slug",
			"value": "test-user",
			"enabled": true
		},
		{
			"key": "gender",
			"value": "male",
			"enabled": true
		},
		{
			"key": "tshirt",
			"value": "m",
			"enabled": true
		},
		{
			"key": "food_pref",
			"value": "none",
			"enabled": true
		},
		{
			"key": "fos",
			"value": "none",
			"enabled": true
		}
	],
	"_postman_variable_scope": "environment",
	"_postman_exported_at": "2021-02-07T18:47:46.239Z",
	"_postman_exported_using": "Postman/7.36.3"
}